65a66
>     private Region                   backButtonMain;
184a186,188
>         backButtonMain = new Region();
>         backButtonMain.getStyleClass().setAll("back-button-main");
> 
209a214
>                                   backButtonMain,
229c234
<         backButton.setOnMousePressed(this::handleMouseClick);
---
>         backButtonMain.setOnMousePressed(this::handleMouseClick);
404a410,412
>             backButtonMain.setPrefSize(0.08824 * width, 0.09914 * height);
>             backButtonMain.relocate(0.80104 * width, 0.23276 * height);
> 
